%YAML 1.1
%TAG !u! tag:unity3d.com,2011:
--- !u!29 &1
OcclusionCullingSettings:
  m_ObjectHideFlags: 0
  serializedVersion: 2
  m_OcclusionBakeSettings:
    smallestOccluder: 5
    smallestHole: 0.25
    backfaceThreshold: 100
  m_SceneGUID: 00000000000000000000000000000000
  m_OcclusionCullingData: {fileID: 0}
--- !u!104 &2
RenderSettings:
  m_ObjectHideFlags: 0
  serializedVersion: 9
  m_Fog: 0
  m_FogColor: {r: 0.5, g: 0.5, b: 0.5, a: 1}
  m_FogMode: 3
  m_FogDensity: 0.01
  m_LinearFogStart: 0
  m_LinearFogEnd: 300
  m_AmbientSkyColor: {r: 0.212, g: 0.227, b: 0.259, a: 1}
  m_AmbientEquatorColor: {r: 0.114, g: 0.125, b: 0.133, a: 1}
  m_AmbientGroundColor: {r: 0.047, g: 0.043, b: 0.035, a: 1}
  m_AmbientIntensity: 1
  m_AmbientMode: 0
  m_SubtractiveShadowColor: {r: 0.42, g: 0.478, b: 0.627, a: 1}
  m_SkyboxMaterial: {fileID: 10304, guid: 0000000000000000f000000000000000, type: 0}
  m_HaloStrength: 0.5
  m_FlareStrength: 1
  m_FlareFadeSpeed: 3
  m_HaloTexture: {fileID: 0}
  m_SpotCookie: {fileID: 10001, guid: 0000000000000000e000000000000000, type: 0}
  m_DefaultReflectionMode: 0
  m_DefaultReflectionResolution: 128
  m_ReflectionBounces: 1
  m_ReflectionIntensity: 1
  m_CustomReflection: {fileID: 0}
  m_Sun: {fileID: 170076734}
  m_IndirectSpecularColor: {r: 0.44657844, g: 0.49641222, b: 0.57481694, a: 1}
  m_UseRadianceAmbientProbe: 0
--- !u!157 &3
LightmapSettings:
  m_ObjectHideFlags: 0
  serializedVersion: 11
  m_GIWorkflowMode: 0
  m_GISettings:
    serializedVersion: 2
    m_BounceScale: 1
    m_IndirectOutputScale: 1
    m_AlbedoBoost: 1
    m_EnvironmentLightingMode: 0
    m_EnableBakedLightmaps: 1
    m_EnableRealtimeLightmaps: 0
  m_LightmapEditorSettings:
    serializedVersion: 10
    m_Resolution: 2
    m_BakeResolution: 10
    m_AtlasSize: 512
    m_AO: 0
    m_AOMaxDistance: 1
    m_CompAOExponent: 1
    m_CompAOExponentDirect: 0
    m_Padding: 2
    m_LightmapParameters: {fileID: 0}
    m_LightmapsBakeMode: 1
    m_TextureCompression: 1
    m_FinalGather: 0
    m_FinalGatherFiltering: 1
    m_FinalGatherRayCount: 256
    m_ReflectionCompression: 2
    m_MixedBakeMode: 2
    m_BakeBackend: 1
    m_PVRSampling: 1
    m_PVRDirectSampleCount: 32
    m_PVRSampleCount: 256
    m_PVRBounces: 2
    m_PVRFilterTypeDirect: 0
    m_PVRFilterTypeIndirect: 0
    m_PVRFilterTypeAO: 0
    m_PVRFilteringMode: 1
    m_PVRCulling: 1
    m_PVRFilteringGaussRadiusDirect: 1
    m_PVRFilteringGaussRadiusIndirect: 5
    m_PVRFilteringGaussRadiusAO: 2
    m_PVRFilteringAtrousPositionSigmaDirect: 0.5
    m_PVRFilteringAtrousPositionSigmaIndirect: 2
    m_PVRFilteringAtrousPositionSigmaAO: 1
    m_ShowResolutionOverlay: 1
  m_LightingDataAsset: {fileID: 0}
  m_UseShadowmask: 1
--- !u!196 &4
NavMeshSettings:
  serializedVersion: 2
  m_ObjectHideFlags: 0
  m_BuildSettings:
    serializedVersion: 2
    agentTypeID: 0
    agentRadius: 0.5
    agentHeight: 2
    agentSlope: 45
    agentClimb: 0.4
    ledgeDropHeight: 0
    maxJumpAcrossDistance: 0
    minRegionArea: 2
    manualCellSize: 0
    cellSize: 0.16666667
    manualTileSize: 0
    tileSize: 256
    accuratePlacement: 0
    debug:
      m_Flags: 0
  m_NavMeshData: {fileID: 0}
--- !u!1 &170076733
GameObject:
  m_ObjectHideFlags: 0
  m_CorrespondingSourceObject: {fileID: 0}
  m_PrefabInstance: {fileID: 0}
  m_PrefabAsset: {fileID: 0}
  serializedVersion: 6
  m_Component:
  - component: {fileID: 170076735}
  - component: {fileID: 170076734}
  m_Layer: 0
  m_Name: Directional Light
  m_TagString: Untagged
  m_Icon: {fileID: 0}
  m_NavMeshLayer: 0
  m_StaticEditorFlags: 0
  m_IsActive: 1
--- !u!108 &170076734
Light:
  m_ObjectHideFlags: 0
  m_CorrespondingSourceObject: {fileID: 0}
  m_PrefabInstance: {fileID: 0}
  m_PrefabAsset: {fileID: 0}
  m_GameObject: {fileID: 170076733}
  m_Enabled: 1
  serializedVersion: 8
  m_Type: 1
  m_Color: {r: 1, g: 0.95686275, b: 0.8392157, a: 1}
  m_Intensity: 1
  m_Range: 10
  m_SpotAngle: 30
  m_CookieSize: 10
  m_Shadows:
    m_Type: 2
    m_Resolution: -1
    m_CustomResolution: -1
    m_Strength: 1
    m_Bias: 0.05
    m_NormalBias: 0.4
    m_NearPlane: 0.2
  m_Cookie: {fileID: 0}
  m_DrawHalo: 0
  m_Flare: {fileID: 0}
  m_RenderMode: 0
  m_CullingMask:
    serializedVersion: 2
    m_Bits: 4294967295
  m_Lightmapping: 1
  m_LightShadowCasterMode: 0
  m_AreaSize: {x: 1, y: 1}
  m_BounceIntensity: 1
  m_ColorTemperature: 6570
  m_UseColorTemperature: 0
  m_ShadowRadius: 0
  m_ShadowAngle: 0
--- !u!4 &170076735
Transform:
  m_ObjectHideFlags: 0
  m_CorrespondingSourceObject: {fileID: 0}
  m_PrefabInstance: {fileID: 0}
  m_PrefabAsset: {fileID: 0}
  m_GameObject: {fileID: 170076733}
  m_LocalRotation: {x: 0.40821788, y: -0.23456968, z: 0.10938163, w: 0.8754261}
  m_LocalPosition: {x: 0, y: 3, z: 0}
  m_LocalScale: {x: 1, y: 1, z: 1}
  m_Children: []
  m_Father: {fileID: 0}
  m_RootOrder: 0
  m_LocalEulerAnglesHint: {x: 50, y: -30, z: 0}
--- !u!1001 &202420470
PrefabInstance:
  m_ObjectHideFlags: 0
  serializedVersion: 2
  m_Modification:
    m_TransformParent: {fileID: 0}
    m_Modifications:
    - target: {fileID: 3495903349966108924, guid: e2ccec26d80524f409a3965459ee5cfd,
        type: 3}
      propertyPath: m_Name
      value: Block (3)
      objectReference: {fileID: 0}
    - target: {fileID: 5376642460924784230, guid: e2ccec26d80524f409a3965459ee5cfd,
        type: 3}
      propertyPath: m_LocalPosition.x
      value: -1.68
      objectReference: {fileID: 0}
    - target: {fileID: 5376642460924784230, guid: e2ccec26d80524f409a3965459ee5cfd,
        type: 3}
      propertyPath: m_LocalPosition.y
      value: 0
      objectReference: {fileID: 0}
    - target: {fileID: 5376642460924784230, guid: e2ccec26d80524f409a3965459ee5cfd,
        type: 3}
      propertyPath: m_LocalPosition.z
      value: -5.38
      objectReference: {fileID: 0}
    - target: {fileID: 5376642460924784230, guid: e2ccec26d80524f409a3965459ee5cfd,
        type: 3}
      propertyPath: m_LocalRotation.x
      value: -0
      objectReference: {fileID: 0}
    - target: {fileID: 5376642460924784230, guid: e2ccec26d80524f409a3965459ee5cfd,
        type: 3}
      propertyPath: m_LocalRotation.y
      value: 0.8749277
      objectReference: {fileID: 0}
    - target: {fileID: 5376642460924784230, guid: e2ccec26d80524f409a3965459ee5cfd,
        type: 3}
      propertyPath: m_LocalRotation.z
      value: -0
      objectReference: {fileID: 0}
    - target: {fileID: 5376642460924784230, guid: e2ccec26d80524f409a3965459ee5cfd,
        type: 3}
      propertyPath: m_LocalRotation.w
      value: 0.48425356
      objectReference: {fileID: 0}
    - target: {fileID: 5376642460924784230, guid: e2ccec26d80524f409a3965459ee5cfd,
        type: 3}
      propertyPath: m_RootOrder
      value: 8
      objectReference: {fileID: 0}
    - target: {fileID: 5376642460924784230, guid: e2ccec26d80524f409a3965459ee5cfd,
        type: 3}
      propertyPath: m_LocalEulerAnglesHint.x
      value: 0
      objectReference: {fileID: 0}
    - target: {fileID: 5376642460924784230, guid: e2ccec26d80524f409a3965459ee5cfd,
        type: 3}
      propertyPath: m_LocalEulerAnglesHint.y
      value: 122.073006
      objectReference: {fileID: 0}
    - target: {fileID: 5376642460924784230, guid: e2ccec26d80524f409a3965459ee5cfd,
        type: 3}
      propertyPath: m_LocalEulerAnglesHint.z
      value: 0
      objectReference: {fileID: 0}
    - target: {fileID: 5376642460924784230, guid: e2ccec26d80524f409a3965459ee5cfd,
        type: 3}
      propertyPath: m_LocalScale.x
      value: 3.7096207
      objectReference: {fileID: 0}
    - target: {fileID: 5376642460924784230, guid: e2ccec26d80524f409a3965459ee5cfd,
        type: 3}
      propertyPath: m_LocalScale.z
      value: 2.4903681
      objectReference: {fileID: 0}
    - target: {fileID: 5376642460924784230, guid: e2ccec26d80524f409a3965459ee5cfd,
        type: 3}
      propertyPath: m_LocalScale.y
      value: 2.2098196
      objectReference: {fileID: 0}
    - target: {fileID: 1213692399887140055, guid: e2ccec26d80524f409a3965459ee5cfd,
        type: 3}
      propertyPath: m_LocalPosition.x
      value: 0.569
      objectReference: {fileID: 0}
    - target: {fileID: 1213692399887140055, guid: e2ccec26d80524f409a3965459ee5cfd,
        type: 3}
      propertyPath: m_LocalScale.x
      value: 0.9323888
      objectReference: {fileID: 0}
    - target: {fileID: 1213692399887140055, guid: e2ccec26d80524f409a3965459ee5cfd,
        type: 3}
      propertyPath: m_LocalPosition.z
      value: 0
      objectReference: {fileID: 0}
    m_RemovedComponents: []
  m_SourcePrefab: {fileID: 100100000, guid: e2ccec26d80524f409a3965459ee5cfd, type: 3}
--- !u!1001 &440399973
PrefabInstance:
  m_ObjectHideFlags: 0
  serializedVersion: 2
  m_Modification:
    m_TransformParent: {fileID: 0}
    m_Modifications:
    - target: {fileID: 3495903349966108924, guid: e2ccec26d80524f409a3965459ee5cfd,
        type: 3}
      propertyPath: m_Name
      value: Block (5)
      objectReference: {fileID: 0}
    - target: {fileID: 5376642460924784230, guid: e2ccec26d80524f409a3965459ee5cfd,
        type: 3}
      propertyPath: m_LocalPosition.x
      value: -2.71
      objectReference: {fileID: 0}
    - target: {fileID: 5376642460924784230, guid: e2ccec26d80524f409a3965459ee5cfd,
        type: 3}
      propertyPath: m_LocalPosition.y
      value: 0
      objectReference: {fileID: 0}
    - target: {fileID: 5376642460924784230, guid: e2ccec26d80524f409a3965459ee5cfd,
        type: 3}
      propertyPath: m_LocalPosition.z
      value: -8.7
      objectReference: {fileID: 0}
    - target: {fileID: 5376642460924784230, guid: e2ccec26d80524f409a3965459ee5cfd,
        type: 3}
      propertyPath: m_LocalRotation.x
      value: -0
      objectReference: {fileID: 0}
    - target: {fileID: 5376642460924784230, guid: e2ccec26d80524f409a3965459ee5cfd,
        type: 3}
      propertyPath: m_LocalRotation.y
      value: 0.4766162
      objectReference: {fileID: 0}
    - target: {fileID: 5376642460924784230, guid: e2ccec26d80524f409a3965459ee5cfd,
        type: 3}
      propertyPath: m_LocalRotation.z
      value: -0
      objectReference: {fileID: 0}
    - target: {fileID: 5376642460924784230, guid: e2ccec26d80524f409a3965459ee5cfd,
        type: 3}
      propertyPath: m_LocalRotation.w
      value: 0.87911147
      objectReference: {fileID: 0}
    - target: {fileID: 5376642460924784230, guid: e2ccec26d80524f409a3965459ee5cfd,
        type: 3}
      propertyPath: m_RootOrder
      value: 9
      objectReference: {fileID: 0}
    - target: {fileID: 5376642460924784230, guid: e2ccec26d80524f409a3965459ee5cfd,
        type: 3}
      propertyPath: m_LocalEulerAnglesHint.x
      value: 0
      objectReference: {fileID: 0}
    - target: {fileID: 5376642460924784230, guid: e2ccec26d80524f409a3965459ee5cfd,
        type: 3}
      propertyPath: m_LocalEulerAnglesHint.y
      value: 56.929
      objectReference: {fileID: 0}
    - target: {fileID: 5376642460924784230, guid: e2ccec26d80524f409a3965459ee5cfd,
        type: 3}
      propertyPath: m_LocalEulerAnglesHint.z
      value: 0
      objectReference: {fileID: 0}
    - target: {fileID: 5376642460924784230, guid: e2ccec26d80524f409a3965459ee5cfd,
        type: 3}
      propertyPath: m_LocalScale.x
      value: 3.7096207
      objectReference: {fileID: 0}
    - target: {fileID: 5376642460924784230, guid: e2ccec26d80524f409a3965459ee5cfd,
        type: 3}
      propertyPath: m_LocalScale.z
      value: 2.4903681
      objectReference: {fileID: 0}
    - target: {fileID: 5376642460924784230, guid: e2ccec26d80524f409a3965459ee5cfd,
        type: 3}
      propertyPath: m_LocalScale.y
      value: 2.2098196
      objectReference: {fileID: 0}
    - target: {fileID: 1213692399887140055, guid: e2ccec26d80524f409a3965459ee5cfd,
        type: 3}
      propertyPath: m_LocalPosition.x
      value: 0.2537
      objectReference: {fileID: 0}
    - target: {fileID: 1213692399887140055, guid: e2ccec26d80524f409a3965459ee5cfd,
        type: 3}
      propertyPath: m_LocalScale.x
      value: 1.5075
      objectReference: {fileID: 0}
    m_RemovedComponents: []
  m_SourcePrefab: {fileID: 100100000, guid: e2ccec26d80524f409a3965459ee5cfd, type: 3}
--- !u!1001 &444476698
PrefabInstance:
  m_ObjectHideFlags: 0
  serializedVersion: 2
  m_Modification:
    m_TransformParent: {fileID: 0}
    m_Modifications:
    - target: {fileID: 3495903349966108924, guid: e2ccec26d80524f409a3965459ee5cfd,
        type: 3}
      propertyPath: m_Name
      value: Block (9)
      objectReference: {fileID: 0}
    - target: {fileID: 5376642460924784230, guid: e2ccec26d80524f409a3965459ee5cfd,
        type: 3}
      propertyPath: m_LocalPosition.x
      value: -2.81
      objectReference: {fileID: 0}
    - target: {fileID: 5376642460924784230, guid: e2ccec26d80524f409a3965459ee5cfd,
        type: 3}
      propertyPath: m_LocalPosition.y
      value: 0
      objectReference: {fileID: 0}
    - target: {fileID: 5376642460924784230, guid: e2ccec26d80524f409a3965459ee5cfd,
        type: 3}
      propertyPath: m_LocalPosition.z
      value: 7.93
      objectReference: {fileID: 0}
    - target: {fileID: 5376642460924784230, guid: e2ccec26d80524f409a3965459ee5cfd,
        type: 3}
      propertyPath: m_LocalRotation.x
      value: 0
      objectReference: {fileID: 0}
    - target: {fileID: 5376642460924784230, guid: e2ccec26d80524f409a3965459ee5cfd,
        type: 3}
      propertyPath: m_LocalRotation.y
      value: 0
      objectReference: {fileID: 0}
    - target: {fileID: 5376642460924784230, guid: e2ccec26d80524f409a3965459ee5cfd,
        type: 3}
      propertyPath: m_LocalRotation.z
      value: 0
      objectReference: {fileID: 0}
    - target: {fileID: 5376642460924784230, guid: e2ccec26d80524f409a3965459ee5cfd,
        type: 3}
      propertyPath: m_LocalRotation.w
      value: 1
      objectReference: {fileID: 0}
    - target: {fileID: 5376642460924784230, guid: e2ccec26d80524f409a3965459ee5cfd,
        type: 3}
      propertyPath: m_RootOrder
      value: 13
      objectReference: {fileID: 0}
    - target: {fileID: 5376642460924784230, guid: e2ccec26d80524f409a3965459ee5cfd,
        type: 3}
      propertyPath: m_LocalEulerAnglesHint.x
      value: 0
      objectReference: {fileID: 0}
    - target: {fileID: 5376642460924784230, guid: e2ccec26d80524f409a3965459ee5cfd,
        type: 3}
      propertyPath: m_LocalEulerAnglesHint.y
      value: 0
      objectReference: {fileID: 0}
    - target: {fileID: 5376642460924784230, guid: e2ccec26d80524f409a3965459ee5cfd,
        type: 3}
      propertyPath: m_LocalEulerAnglesHint.z
      value: 0
      objectReference: {fileID: 0}
    - target: {fileID: 5376642460924784230, guid: e2ccec26d80524f409a3965459ee5cfd,
        type: 3}
      propertyPath: m_LocalScale.x
      value: 3.7096207
      objectReference: {fileID: 0}
    - target: {fileID: 5376642460924784230, guid: e2ccec26d80524f409a3965459ee5cfd,
        type: 3}
      propertyPath: m_LocalScale.z
      value: 2.4903681
      objectReference: {fileID: 0}
    - target: {fileID: 5376642460924784230, guid: e2ccec26d80524f409a3965459ee5cfd,
        type: 3}
      propertyPath: m_LocalScale.y
      value: 2.2098196
      objectReference: {fileID: 0}
    - target: {fileID: 1213692399887140055, guid: e2ccec26d80524f409a3965459ee5cfd,
        type: 3}
      propertyPath: m_LocalPosition.x
      value: -0.869
      objectReference: {fileID: 0}
    - target: {fileID: 1213692399887140055, guid: e2ccec26d80524f409a3965459ee5cfd,
        type: 3}
      propertyPath: m_LocalScale.x
      value: 1.5075
      objectReference: {fileID: 0}
    - target: {fileID: 1213692399887140055, guid: e2ccec26d80524f409a3965459ee5cfd,
        type: 3}
      propertyPath: m_LocalPosition.z
      value: -0.16
      objectReference: {fileID: 0}
    m_RemovedComponents: []
  m_SourcePrefab: {fileID: 100100000, guid: e2ccec26d80524f409a3965459ee5cfd, type: 3}
--- !u!1001 &493855378
PrefabInstance:
  m_ObjectHideFlags: 0
  serializedVersion: 2
  m_Modification:
    m_TransformParent: {fileID: 0}
    m_Modifications:
    - target: {fileID: 100000, guid: 5e9e851c0e142814dac026a256ba2ac0, type: 3}
      propertyPath: m_Name
      value: FPSController
      objectReference: {fileID: 0}
    - target: {fileID: 400000, guid: 5e9e851c0e142814dac026a256ba2ac0, type: 3}
      propertyPath: m_LocalPosition.x
      value: -7.160328
      objectReference: {fileID: 0}
    - target: {fileID: 400000, guid: 5e9e851c0e142814dac026a256ba2ac0, type: 3}
      propertyPath: m_LocalPosition.y
      value: -0.5
      objectReference: {fileID: 0}
    - target: {fileID: 400000, guid: 5e9e851c0e142814dac026a256ba2ac0, type: 3}
      propertyPath: m_LocalPosition.z
      value: -0.9912071
      objectReference: {fileID: 0}
    - target: {fileID: 400000, guid: 5e9e851c0e142814dac026a256ba2ac0, type: 3}
      propertyPath: m_LocalRotation.x
      value: 0
      objectReference: {fileID: 0}
    - target: {fileID: 400000, guid: 5e9e851c0e142814dac026a256ba2ac0, type: 3}
      propertyPath: m_LocalRotation.y
      value: 0
      objectReference: {fileID: 0}
    - target: {fileID: 400000, guid: 5e9e851c0e142814dac026a256ba2ac0, type: 3}
      propertyPath: m_LocalRotation.z
      value: 0
      objectReference: {fileID: 0}
    - target: {fileID: 400000, guid: 5e9e851c0e142814dac026a256ba2ac0, type: 3}
      propertyPath: m_LocalRotation.w
      value: 1
      objectReference: {fileID: 0}
    - target: {fileID: 400000, guid: 5e9e851c0e142814dac026a256ba2ac0, type: 3}
      propertyPath: m_RootOrder
      value: 1
      objectReference: {fileID: 0}
    - target: {fileID: 400000, guid: 5e9e851c0e142814dac026a256ba2ac0, type: 3}
      propertyPath: m_LocalEulerAnglesHint.x
      value: 0
      objectReference: {fileID: 0}
    - target: {fileID: 400000, guid: 5e9e851c0e142814dac026a256ba2ac0, type: 3}
      propertyPath: m_LocalEulerAnglesHint.y
      value: 0
      objectReference: {fileID: 0}
    - target: {fileID: 400000, guid: 5e9e851c0e142814dac026a256ba2ac0, type: 3}
      propertyPath: m_LocalEulerAnglesHint.z
      value: 0
      objectReference: {fileID: 0}
    m_RemovedComponents: []
  m_SourcePrefab: {fileID: 100100000, guid: 5e9e851c0e142814dac026a256ba2ac0, type: 3}
--- !u!4 &912984948 stripped
Transform:
  m_CorrespondingSourceObject: {fileID: 5376642460924784230, guid: e2ccec26d80524f409a3965459ee5cfd,
    type: 3}
  m_PrefabInstance: {fileID: 444476698}
  m_PrefabAsset: {fileID: 0}
--- !u!1 &933141421
GameObject:
  m_ObjectHideFlags: 0
  m_CorrespondingSourceObject: {fileID: 0}
  m_PrefabInstance: {fileID: 0}
  m_PrefabAsset: {fileID: 0}
  serializedVersion: 6
  m_Component:
  - component: {fileID: 933141425}
  - component: {fileID: 933141424}
  - component: {fileID: 933141423}
  - component: {fileID: 933141422}
  m_Layer: 0
  m_Name: Ground
  m_TagString: Untagged
  m_Icon: {fileID: 0}
  m_NavMeshLayer: 0
  m_StaticEditorFlags: 0
  m_IsActive: 1
--- !u!65 &933141422
BoxCollider:
  m_ObjectHideFlags: 0
  m_CorrespondingSourceObject: {fileID: 0}
  m_PrefabInstance: {fileID: 0}
  m_PrefabAsset: {fileID: 0}
  m_GameObject: {fileID: 933141421}
  m_Material: {fileID: 0}
  m_IsTrigger: 0
  m_Enabled: 1
  serializedVersion: 2
  m_Size: {x: 1, y: 1, z: 1}
  m_Center: {x: 0, y: 0, z: 0}
--- !u!23 &933141423
MeshRenderer:
  m_ObjectHideFlags: 0
  m_CorrespondingSourceObject: {fileID: 0}
  m_PrefabInstance: {fileID: 0}
  m_PrefabAsset: {fileID: 0}
  m_GameObject: {fileID: 933141421}
  m_Enabled: 1
  m_CastShadows: 1
  m_ReceiveShadows: 1
  m_DynamicOccludee: 1
  m_MotionVectors: 1
  m_LightProbeUsage: 1
  m_ReflectionProbeUsage: 1
  m_RenderingLayerMask: 1
  m_RendererPriority: 0
  m_Materials:
  - {fileID: 2100000, guid: 5af2f4430eeb3a74cb965b2259a4ad9e, type: 2}
  m_StaticBatchInfo:
    firstSubMesh: 0
    subMeshCount: 0
  m_StaticBatchRoot: {fileID: 0}
  m_ProbeAnchor: {fileID: 0}
  m_LightProbeVolumeOverride: {fileID: 0}
  m_ScaleInLightmap: 1
  m_PreserveUVs: 0
  m_IgnoreNormalsForChartDetection: 0
  m_ImportantGI: 0
  m_StitchLightmapSeams: 0
  m_SelectedEditorRenderState: 3
  m_MinimumChartSize: 4
  m_AutoUVMaxDistance: 0.5
  m_AutoUVMaxAngle: 89
  m_LightmapParameters: {fileID: 0}
  m_SortingLayerID: 0
  m_SortingLayer: 0
  m_SortingOrder: 0
--- !u!33 &933141424
MeshFilter:
  m_ObjectHideFlags: 0
  m_CorrespondingSourceObject: {fileID: 0}
  m_PrefabInstance: {fileID: 0}
  m_PrefabAsset: {fileID: 0}
  m_GameObject: {fileID: 933141421}
  m_Mesh: {fileID: 10202, guid: 0000000000000000e000000000000000, type: 0}
--- !u!4 &933141425
Transform:
  m_ObjectHideFlags: 0
  m_CorrespondingSourceObject: {fileID: 0}
  m_PrefabInstance: {fileID: 0}
  m_PrefabAsset: {fileID: 0}
  m_GameObject: {fileID: 933141421}
  m_LocalRotation: {x: 0, y: 0, z: 0, w: 1}
  m_LocalPosition: {x: -28.649643, y: -1, z: 32.237885}
  m_LocalScale: {x: 100, y: 1, z: 100}
  m_Children: []
  m_Father: {fileID: 0}
  m_RootOrder: 4
  m_LocalEulerAnglesHint: {x: 0, y: 0, z: 0}
--- !u!1 &962289638
GameObject:
  m_ObjectHideFlags: 0
  m_CorrespondingSourceObject: {fileID: 0}
  m_PrefabInstance: {fileID: 0}
  m_PrefabAsset: {fileID: 0}
  serializedVersion: 6
  m_Component:
  - component: {fileID: 962289639}
  - component: {fileID: 962289642}
  - component: {fileID: 962289641}
  - component: {fileID: 962289640}
  m_Layer: 0
  m_Name: Cube (2)
  m_TagString: Untagged
  m_Icon: {fileID: 0}
  m_NavMeshLayer: 0
  m_StaticEditorFlags: 0
  m_IsActive: 1
--- !u!4 &962289639
Transform:
  m_ObjectHideFlags: 0
  m_CorrespondingSourceObject: {fileID: 0}
  m_PrefabInstance: {fileID: 0}
  m_PrefabAsset: {fileID: 0}
  m_GameObject: {fileID: 962289638}
  m_LocalRotation: {x: -0, y: -0, z: -0, w: 1}
  m_LocalPosition: {x: 1.021, y: 0, z: -2.07}
  m_LocalScale: {x: 1.5074991, y: 1, z: 1.0000008}
  m_Children: []
  m_Father: {fileID: 912984948}
  m_RootOrder: 2
  m_LocalEulerAnglesHint: {x: 0, y: 0, z: 0}
--- !u!65 &962289640
BoxCollider:
  m_ObjectHideFlags: 0
  m_CorrespondingSourceObject: {fileID: 0}
  m_PrefabInstance: {fileID: 0}
  m_PrefabAsset: {fileID: 0}
  m_GameObject: {fileID: 962289638}
  m_Material: {fileID: 0}
  m_IsTrigger: 0
  m_Enabled: 1
  serializedVersion: 2
  m_Size: {x: 1, y: 1, z: 1}
  m_Center: {x: 0, y: 0, z: 0}
--- !u!23 &962289641
MeshRenderer:
  m_ObjectHideFlags: 0
  m_CorrespondingSourceObject: {fileID: 0}
  m_PrefabInstance: {fileID: 0}
  m_PrefabAsset: {fileID: 0}
  m_GameObject: {fileID: 962289638}
  m_Enabled: 1
  m_CastShadows: 1
  m_ReceiveShadows: 1
  m_DynamicOccludee: 1
  m_MotionVectors: 1
  m_LightProbeUsage: 1
  m_ReflectionProbeUsage: 1
  m_RenderingLayerMask: 1
  m_RendererPriority: 0
  m_Materials:
  - {fileID: 2100000, guid: 75ca81c9734c4704c80e7818f2d9b208, type: 2}
  m_StaticBatchInfo:
    firstSubMesh: 0
    subMeshCount: 0
  m_StaticBatchRoot: {fileID: 0}
  m_ProbeAnchor: {fileID: 0}
  m_LightProbeVolumeOverride: {fileID: 0}
  m_ScaleInLightmap: 1
  m_PreserveUVs: 0
  m_IgnoreNormalsForChartDetection: 0
  m_ImportantGI: 0
  m_StitchLightmapSeams: 0
  m_SelectedEditorRenderState: 3
  m_MinimumChartSize: 4
  m_AutoUVMaxDistance: 0.5
  m_AutoUVMaxAngle: 89
  m_LightmapParameters: {fileID: 0}
  m_SortingLayerID: 0
  m_SortingLayer: 0
  m_SortingOrder: 0
--- !u!33 &962289642
MeshFilter:
  m_ObjectHideFlags: 0
  m_CorrespondingSourceObject: {fileID: 0}
  m_PrefabInstance: {fileID: 0}
  m_PrefabAsset: {fileID: 0}
  m_GameObject: {fileID: 962289638}
  m_Mesh: {fileID: 10202, guid: 0000000000000000e000000000000000, type: 0}
--- !u!1 &1025537455
GameObject:
  m_ObjectHideFlags: 0
  m_CorrespondingSourceObject: {fileID: 0}
  m_PrefabInstance: {fileID: 0}
  m_PrefabAsset: {fileID: 0}
  serializedVersion: 6
  m_Component:
  - component: {fileID: 1025537456}
  - component: {fileID: 1025537459}
  - component: {fileID: 1025537458}
  - component: {fileID: 1025537457}
  m_Layer: 0
  m_Name: Cube (1)
  m_TagString: Untagged
  m_Icon: {fileID: 0}
  m_NavMeshLayer: 0
  m_StaticEditorFlags: 0
  m_IsActive: 1
--- !u!4 &1025537456
Transform:
  m_ObjectHideFlags: 0
  m_CorrespondingSourceObject: {fileID: 0}
  m_PrefabInstance: {fileID: 0}
  m_PrefabAsset: {fileID: 0}
  m_GameObject: {fileID: 1025537455}
  m_LocalRotation: {x: -0, y: -0, z: -0, w: 1}
  m_LocalPosition: {x: 0.642, y: 0, z: -0.175}
  m_LocalScale: {x: 1.5074991, y: 1, z: 1.0000008}
  m_Children: []
  m_Father: {fileID: 912984948}
  m_RootOrder: 1
  m_LocalEulerAnglesHint: {x: 0, y: 0, z: 0}
--- !u!65 &1025537457
BoxCollider:
  m_ObjectHideFlags: 0
  m_CorrespondingSourceObject: {fileID: 0}
  m_PrefabInstance: {fileID: 0}
  m_PrefabAsset: {fileID: 0}
  m_GameObject: {fileID: 1025537455}
  m_Material: {fileID: 0}
  m_IsTrigger: 0
  m_Enabled: 1
  serializedVersion: 2
  m_Size: {x: 1, y: 1, z: 1}
  m_Center: {x: 0, y: 0, z: 0}
--- !u!23 &1025537458
MeshRenderer:
  m_ObjectHideFlags: 0
  m_CorrespondingSourceObject: {fileID: 0}
  m_PrefabInstance: {fileID: 0}
  m_PrefabAsset: {fileID: 0}
  m_GameObject: {fileID: 1025537455}
  m_Enabled: 1
  m_CastShadows: 1
  m_ReceiveShadows: 1
  m_DynamicOccludee: 1
  m_MotionVectors: 1
  m_LightProbeUsage: 1
  m_ReflectionProbeUsage: 1
  m_RenderingLayerMask: 1
  m_RendererPriority: 0
  m_Materials:
  - {fileID: 2100000, guid: 75ca81c9734c4704c80e7818f2d9b208, type: 2}
  m_StaticBatchInfo:
    firstSubMesh: 0
    subMeshCount: 0
  m_StaticBatchRoot: {fileID: 0}
  m_ProbeAnchor: {fileID: 0}
  m_LightProbeVolumeOverride: {fileID: 0}
  m_ScaleInLightmap: 1
  m_PreserveUVs: 0
  m_IgnoreNormalsForChartDetection: 0
  m_ImportantGI: 0
  m_StitchLightmapSeams: 0
  m_SelectedEditorRenderState: 3
  m_MinimumChartSize: 4
  m_AutoUVMaxDistance: 0.5
  m_AutoUVMaxAngle: 89
  m_LightmapParameters: {fileID: 0}
  m_SortingLayerID: 0
  m_SortingLayer: 0
  m_SortingOrder: 0
--- !u!33 &1025537459
MeshFilter:
  m_ObjectHideFlags: 0
  m_CorrespondingSourceObject: {fileID: 0}
  m_PrefabInstance: {fileID: 0}
  m_PrefabAsset: {fileID: 0}
  m_GameObject: {fileID: 1025537455}
  m_Mesh: {fileID: 10202, guid: 0000000000000000e000000000000000, type: 0}
--- !u!1001 &1382482415
PrefabInstance:
  m_ObjectHideFlags: 0
  serializedVersion: 2
  m_Modification:
    m_TransformParent: {fileID: 0}
    m_Modifications:
    - target: {fileID: 3495903349966108924, guid: e2ccec26d80524f409a3965459ee5cfd,
        type: 3}
      propertyPath: m_Name
      value: Block (1)
      objectReference: {fileID: 0}
    - target: {fileID: 5376642460924784230, guid: e2ccec26d80524f409a3965459ee5cfd,
        type: 3}
      propertyPath: m_LocalPosition.x
      value: -8.91
      objectReference: {fileID: 0}
    - target: {fileID: 5376642460924784230, guid: e2ccec26d80524f409a3965459ee5cfd,
        type: 3}
      propertyPath: m_LocalPosition.y
      value: 0
      objectReference: {fileID: 0}
    - target: {fileID: 5376642460924784230, guid: e2ccec26d80524f409a3965459ee5cfd,
        type: 3}
      propertyPath: m_LocalPosition.z
      value: 16.374582
      objectReference: {fileID: 0}
    - target: {fileID: 5376642460924784230, guid: e2ccec26d80524f409a3965459ee5cfd,
        type: 3}
      propertyPath: m_LocalRotation.x
      value: 0
      objectReference: {fileID: 0}
    - target: {fileID: 5376642460924784230, guid: e2ccec26d80524f409a3965459ee5cfd,
        type: 3}
      propertyPath: m_LocalRotation.y
      value: 0
      objectReference: {fileID: 0}
    - target: {fileID: 5376642460924784230, guid: e2ccec26d80524f409a3965459ee5cfd,
        type: 3}
      propertyPath: m_LocalRotation.z
      value: 0
      objectReference: {fileID: 0}
    - target: {fileID: 5376642460924784230, guid: e2ccec26d80524f409a3965459ee5cfd,
        type: 3}
      propertyPath: m_LocalRotation.w
      value: 1
      objectReference: {fileID: 0}
    - target: {fileID: 5376642460924784230, guid: e2ccec26d80524f409a3965459ee5cfd,
        type: 3}
      propertyPath: m_RootOrder
      value: 5
      objectReference: {fileID: 0}
    - target: {fileID: 5376642460924784230, guid: e2ccec26d80524f409a3965459ee5cfd,
        type: 3}
      propertyPath: m_LocalEulerAnglesHint.x
      value: 0
      objectReference: {fileID: 0}
    - target: {fileID: 5376642460924784230, guid: e2ccec26d80524f409a3965459ee5cfd,
        type: 3}
      propertyPath: m_LocalEulerAnglesHint.y
      value: 0
      objectReference: {fileID: 0}
    - target: {fileID: 5376642460924784230, guid: e2ccec26d80524f409a3965459ee5cfd,
        type: 3}
      propertyPath: m_LocalEulerAnglesHint.z
      value: 0
      objectReference: {fileID: 0}
    - target: {fileID: 5376642460924784230, guid: e2ccec26d80524f409a3965459ee5cfd,
        type: 3}
      propertyPath: m_LocalScale.x
      value: 4.893184
      objectReference: {fileID: 0}
    - target: {fileID: 1213692399887140055, guid: e2ccec26d80524f409a3965459ee5cfd,
        type: 3}
      propertyPath: m_LocalPosition.x
      value: 0.2537
      objectReference: {fileID: 0}
    - target: {fileID: 1213692399887140055, guid: e2ccec26d80524f409a3965459ee5cfd,
        type: 3}
      propertyPath: m_LocalScale.x
      value: 1.5075
      objectReference: {fileID: 0}
    m_RemovedComponents: []
  m_SourcePrefab: {fileID: 100100000, guid: e2ccec26d80524f409a3965459ee5cfd, type: 3}
--- !u!1001 &1471496618
PrefabInstance:
  m_ObjectHideFlags: 0
  serializedVersion: 2
  m_Modification:
    m_TransformParent: {fileID: 0}
    m_Modifications:
    - target: {fileID: 3495903349966108924, guid: e2ccec26d80524f409a3965459ee5cfd,
        type: 3}
      propertyPath: m_Name
      value: Block (6)
      objectReference: {fileID: 0}
    - target: {fileID: 5376642460924784230, guid: e2ccec26d80524f409a3965459ee5cfd,
        type: 3}
      propertyPath: m_LocalPosition.x
      value: -11.806673
      objectReference: {fileID: 0}
    - target: {fileID: 5376642460924784230, guid: e2ccec26d80524f409a3965459ee5cfd,
        type: 3}
      propertyPath: m_LocalPosition.y
      value: 0
      objectReference: {fileID: 0}
    - target: {fileID: 5376642460924784230, guid: e2ccec26d80524f409a3965459ee5cfd,
        type: 3}
      propertyPath: m_LocalPosition.z
      value: -3.1168346
      objectReference: {fileID: 0}
    - target: {fileID: 5376642460924784230, guid: e2ccec26d80524f409a3965459ee5cfd,
        type: 3}
      propertyPath: m_LocalRotation.x
      value: -0
      objectReference: {fileID: 0}
    - target: {fileID: 5376642460924784230, guid: e2ccec26d80524f409a3965459ee5cfd,
        type: 3}
      propertyPath: m_LocalRotation.y
      value: 0.72681016
      objectReference: {fileID: 0}
    - target: {fileID: 5376642460924784230, guid: e2ccec26d80524f409a3965459ee5cfd,
        type: 3}
      propertyPath: m_LocalRotation.z
      value: -0
      objectReference: {fileID: 0}
    - target: {fileID: 5376642460924784230, guid: e2ccec26d80524f409a3965459ee5cfd,
        type: 3}
      propertyPath: m_LocalRotation.w
      value: 0.68683845
      objectReference: {fileID: 0}
    - target: {fileID: 5376642460924784230, guid: e2ccec26d80524f409a3965459ee5cfd,
        type: 3}
      propertyPath: m_RootOrder
      value: 10
      objectReference: {fileID: 0}
    - target: {fileID: 5376642460924784230, guid: e2ccec26d80524f409a3965459ee5cfd,
        type: 3}
      propertyPath: m_LocalEulerAnglesHint.x
      value: 0
      objectReference: {fileID: 0}
    - target: {fileID: 5376642460924784230, guid: e2ccec26d80524f409a3965459ee5cfd,
        type: 3}
      propertyPath: m_LocalEulerAnglesHint.y
      value: 93.239006
      objectReference: {fileID: 0}
    - target: {fileID: 5376642460924784230, guid: e2ccec26d80524f409a3965459ee5cfd,
        type: 3}
      propertyPath: m_LocalEulerAnglesHint.z
      value: 0
      objectReference: {fileID: 0}
    - target: {fileID: 5376642460924784230, guid: e2ccec26d80524f409a3965459ee5cfd,
        type: 3}
      propertyPath: m_LocalScale.x
      value: 1.6682
      objectReference: {fileID: 0}
    - target: {fileID: 5376642460924784230, guid: e2ccec26d80524f409a3965459ee5cfd,
        type: 3}
      propertyPath: m_LocalScale.y
      value: 2.3942735
      objectReference: {fileID: 0}
    - target: {fileID: 5376642460924784230, guid: e2ccec26d80524f409a3965459ee5cfd,
        type: 3}
      propertyPath: m_LocalScale.z
      value: 1.6682
      objectReference: {fileID: 0}
    m_RemovedComponents: []
  m_SourcePrefab: {fileID: 100100000, guid: e2ccec26d80524f409a3965459ee5cfd, type: 3}
--- !u!1001 &1501707893
PrefabInstance:
  m_ObjectHideFlags: 0
  serializedVersion: 2
  m_Modification:
    m_TransformParent: {fileID: 0}
    m_Modifications:
    - target: {fileID: 3495903349966108924, guid: e2ccec26d80524f409a3965459ee5cfd,
        type: 3}
      propertyPath: m_Name
      value: Block (4)
      objectReference: {fileID: 0}
    - target: {fileID: 5376642460924784230, guid: e2ccec26d80524f409a3965459ee5cfd,
        type: 3}
      propertyPath: m_LocalPosition.x
      value: -10.8
      objectReference: {fileID: 0}
    - target: {fileID: 5376642460924784230, guid: e2ccec26d80524f409a3965459ee5cfd,
        type: 3}
      propertyPath: m_LocalPosition.y
      value: 0
      objectReference: {fileID: 0}
    - target: {fileID: 5376642460924784230, guid: e2ccec26d80524f409a3965459ee5cfd,
        type: 3}
      propertyPath: m_LocalPosition.z
      value: 14.414582
      objectReference: {fileID: 0}
    - target: {fileID: 5376642460924784230, guid: e2ccec26d80524f409a3965459ee5cfd,
        type: 3}
      propertyPath: m_LocalRotation.x
      value: 0
      objectReference: {fileID: 0}
    - target: {fileID: 5376642460924784230, guid: e2ccec26d80524f409a3965459ee5cfd,
        type: 3}
      propertyPath: m_LocalRotation.y
      value: 0.7071068
      objectReference: {fileID: 0}
    - target: {fileID: 5376642460924784230, guid: e2ccec26d80524f409a3965459ee5cfd,
        type: 3}
      propertyPath: m_LocalRotation.z
      value: 0
      objectReference: {fileID: 0}
    - target: {fileID: 5376642460924784230, guid: e2ccec26d80524f409a3965459ee5cfd,
        type: 3}
      propertyPath: m_LocalRotation.w
      value: 0.7071068
      objectReference: {fileID: 0}
    - target: {fileID: 5376642460924784230, guid: e2ccec26d80524f409a3965459ee5cfd,
        type: 3}
      propertyPath: m_RootOrder
      value: 6
      objectReference: {fileID: 0}
    - target: {fileID: 5376642460924784230, guid: e2ccec26d80524f409a3965459ee5cfd,
        type: 3}
      propertyPath: m_LocalEulerAnglesHint.x
      value: 0
      objectReference: {fileID: 0}
    - target: {fileID: 5376642460924784230, guid: e2ccec26d80524f409a3965459ee5cfd,
        type: 3}
      propertyPath: m_LocalEulerAnglesHint.y
      value: 90
      objectReference: {fileID: 0}
    - target: {fileID: 5376642460924784230, guid: e2ccec26d80524f409a3965459ee5cfd,
        type: 3}
      propertyPath: m_LocalEulerAnglesHint.z
      value: 0
      objectReference: {fileID: 0}
    - target: {fileID: 5376642460924784230, guid: e2ccec26d80524f409a3965459ee5cfd,
        type: 3}
      propertyPath: m_LocalScale.x
      value: 4.893184
      objectReference: {fileID: 0}
    - target: {fileID: 1213692399887140055, guid: e2ccec26d80524f409a3965459ee5cfd,
        type: 3}
      propertyPath: m_LocalPosition.x
      value: 0.2537
      objectReference: {fileID: 0}
    - target: {fileID: 1213692399887140055, guid: e2ccec26d80524f409a3965459ee5cfd,
        type: 3}
      propertyPath: m_LocalScale.x
      value: 1.5075
      objectReference: {fileID: 0}
    m_RemovedComponents: []
  m_SourcePrefab: {fileID: 100100000, guid: e2ccec26d80524f409a3965459ee5cfd, type: 3}
--- !u!1001 &1925395836
PrefabInstance:
  m_ObjectHideFlags: 0
  serializedVersion: 2
  m_Modification:
    m_TransformParent: {fileID: 0}
    m_Modifications:
    - target: {fileID: 3495903349966108924, guid: e2ccec26d80524f409a3965459ee5cfd,
        type: 3}
      propertyPath: m_Name
      value: Block (7)
      objectReference: {fileID: 0}
    - target: {fileID: 5376642460924784230, guid: e2ccec26d80524f409a3965459ee5cfd,
        type: 3}
      propertyPath: m_LocalPosition.x
      value: -3.085011
      objectReference: {fileID: 0}
    - target: {fileID: 5376642460924784230, guid: e2ccec26d80524f409a3965459ee5cfd,
        type: 3}
      propertyPath: m_LocalPosition.y
      value: 0
      objectReference: {fileID: 0}
    - target: {fileID: 5376642460924784230, guid: e2ccec26d80524f409a3965459ee5cfd,
        type: 3}
      propertyPath: m_LocalPosition.z
      value: 2.329
      objectReference: {fileID: 0}
    - target: {fileID: 5376642460924784230, guid: e2ccec26d80524f409a3965459ee5cfd,
        type: 3}
      propertyPath: m_LocalRotation.x
      value: -0
      objectReference: {fileID: 0}
    - target: {fileID: 5376642460924784230, guid: e2ccec26d80524f409a3965459ee5cfd,
        type: 3}
      propertyPath: m_LocalRotation.y
      value: 0.72681016
      objectReference: {fileID: 0}
    - target: {fileID: 5376642460924784230, guid: e2ccec26d80524f409a3965459ee5cfd,
        type: 3}
      propertyPath: m_LocalRotation.z
      value: -0
      objectReference: {fileID: 0}
    - target: {fileID: 5376642460924784230, guid: e2ccec26d80524f409a3965459ee5cfd,
        type: 3}
      propertyPath: m_LocalRotation.w
      value: 0.68683845
      objectReference: {fileID: 0}
    - target: {fileID: 5376642460924784230, guid: e2ccec26d80524f409a3965459ee5cfd,
        type: 3}
      propertyPath: m_RootOrder
      value: 11
      objectReference: {fileID: 0}
    - target: {fileID: 5376642460924784230, guid: e2ccec26d80524f409a3965459ee5cfd,
        type: 3}
      propertyPath: m_LocalEulerAnglesHint.x
      value: 0
      objectReference: {fileID: 0}
    - target: {fileID: 5376642460924784230, guid: e2ccec26d80524f409a3965459ee5cfd,
        type: 3}
      propertyPath: m_LocalEulerAnglesHint.y
      value: 93.239006
      objectReference: {fileID: 0}
    - target: {fileID: 5376642460924784230, guid: e2ccec26d80524f409a3965459ee5cfd,
        type: 3}
      propertyPath: m_LocalEulerAnglesHint.z
      value: 0
      objectReference: {fileID: 0}
    - target: {fileID: 5376642460924784230, guid: e2ccec26d80524f409a3965459ee5cfd,
        type: 3}
      propertyPath: m_LocalScale.x
      value: 3.7096207
      objectReference: {fileID: 0}
    - target: {fileID: 5376642460924784230, guid: e2ccec26d80524f409a3965459ee5cfd,
        type: 3}
      propertyPath: m_LocalScale.z
      value: 2.4903681
      objectReference: {fileID: 0}
    - target: {fileID: 5376642460924784230, guid: e2ccec26d80524f409a3965459ee5cfd,
        type: 3}
      propertyPath: m_LocalScale.y
      value: 2.2098196
      objectReference: {fileID: 0}
    - target: {fileID: 1213692399887140055, guid: e2ccec26d80524f409a3965459ee5cfd,
        type: 3}
      propertyPath: m_LocalPosition.x
      value: 0.2537
      objectReference: {fileID: 0}
    - target: {fileID: 1213692399887140055, guid: e2ccec26d80524f409a3965459ee5cfd,
        type: 3}
      propertyPath: m_LocalScale.x
      value: 1.5075
      objectReference: {fileID: 0}
    m_RemovedComponents: []
  m_SourcePrefab: {fileID: 100100000, guid: e2ccec26d80524f409a3965459ee5cfd, type: 3}
--- !u!1001 &2011937881
PrefabInstance:
  m_ObjectHideFlags: 0
  serializedVersion: 2
  m_Modification:
    m_TransformParent: {fileID: 0}
    m_Modifications:
    - target: {fileID: 3495903349966108924, guid: e2ccec26d80524f409a3965459ee5cfd,
        type: 3}
      propertyPath: m_Name
      value: Block (8)
      objectReference: {fileID: 0}
    - target: {fileID: 5376642460924784230, guid: e2ccec26d80524f409a3965459ee5cfd,
        type: 3}
      propertyPath: m_LocalPosition.x
      value: -10.03
      objectReference: {fileID: 0}
    - target: {fileID: 5376642460924784230, guid: e2ccec26d80524f409a3965459ee5cfd,
        type: 3}
      propertyPath: m_LocalPosition.y
      value: 0
      objectReference: {fileID: 0}
    - target: {fileID: 5376642460924784230, guid: e2ccec26d80524f409a3965459ee5cfd,
        type: 3}
      propertyPath: m_LocalPosition.z
      value: 7.03
      objectReference: {fileID: 0}
    - target: {fileID: 5376642460924784230, guid: e2ccec26d80524f409a3965459ee5cfd,
        type: 3}
      propertyPath: m_LocalRotation.x
      value: -0
      objectReference: {fileID: 0}
    - target: {fileID: 5376642460924784230, guid: e2ccec26d80524f409a3965459ee5cfd,
        type: 3}
      propertyPath: m_LocalRotation.y
      value: 0.72681016
      objectReference: {fileID: 0}
    - target: {fileID: 5376642460924784230, guid: e2ccec26d80524f409a3965459ee5cfd,
        type: 3}
      propertyPath: m_LocalRotation.z
      value: -0
      objectReference: {fileID: 0}
    - target: {fileID: 5376642460924784230, guid: e2ccec26d80524f409a3965459ee5cfd,
        type: 3}
      propertyPath: m_LocalRotation.w
      value: 0.68683845
      objectReference: {fileID: 0}
    - target: {fileID: 5376642460924784230, guid: e2ccec26d80524f409a3965459ee5cfd,
        type: 3}
      propertyPath: m_RootOrder
      value: 12
      objectReference: {fileID: 0}
    - target: {fileID: 5376642460924784230, guid: e2ccec26d80524f409a3965459ee5cfd,
        type: 3}
      propertyPath: m_LocalEulerAnglesHint.x
      value: 0
      objectReference: {fileID: 0}
    - target: {fileID: 5376642460924784230, guid: e2ccec26d80524f409a3965459ee5cfd,
        type: 3}
      propertyPath: m_LocalEulerAnglesHint.y
      value: 93.239006
      objectReference: {fileID: 0}
    - target: {fileID: 5376642460924784230, guid: e2ccec26d80524f409a3965459ee5cfd,
        type: 3}
      propertyPath: m_LocalEulerAnglesHint.z
      value: 0
      objectReference: {fileID: 0}
    - target: {fileID: 5376642460924784230, guid: e2ccec26d80524f409a3965459ee5cfd,
        type: 3}
      propertyPath: m_LocalScale.x
      value: 3.7096207
      objectReference: {fileID: 0}
    - target: {fileID: 5376642460924784230, guid: e2ccec26d80524f409a3965459ee5cfd,
        type: 3}
      propertyPath: m_LocalScale.z
      value: 2.4903681
      objectReference: {fileID: 0}
    - target: {fileID: 5376642460924784230, guid: e2ccec26d80524f409a3965459ee5cfd,
        type: 3}
      propertyPath: m_LocalScale.y
      value: 2.2098196
      objectReference: {fileID: 0}
    - target: {fileID: 1213692399887140055, guid: e2ccec26d80524f409a3965459ee5cfd,
        type: 3}
      propertyPath: m_LocalPosition.x
      value: 0.2537
      objectReference: {fileID: 0}
    - target: {fileID: 1213692399887140055, guid: e2ccec26d80524f409a3965459ee5cfd,
        type: 3}
      propertyPath: m_LocalScale.x
      value: 1.5075
      objectReference: {fileID: 0}
    m_RemovedComponents: []
  m_SourcePrefab: {fileID: 100100000, guid: e2ccec26d80524f409a3965459ee5cfd, type: 3}
--- !u!1001 &2063203909
PrefabInstance:
  m_ObjectHideFlags: 0
  serializedVersion: 2
  m_Modification:
    m_TransformParent: {fileID: 0}
    m_Modifications:
    - target: {fileID: 3495903349966108924, guid: e2ccec26d80524f409a3965459ee5cfd,
        type: 3}
      propertyPath: m_Name
      value: Block (2)
      objectReference: {fileID: 0}
    - target: {fileID: 5376642460924784230, guid: e2ccec26d80524f409a3965459ee5cfd,
        type: 3}
      propertyPath: m_LocalPosition.x
      value: -19.722439
      objectReference: {fileID: 0}
    - target: {fileID: 5376642460924784230, guid: e2ccec26d80524f409a3965459ee5cfd,
        type: 3}
      propertyPath: m_LocalPosition.y
      value: 0
      objectReference: {fileID: 0}
    - target: {fileID: 5376642460924784230, guid: e2ccec26d80524f409a3965459ee5cfd,
        type: 3}
      propertyPath: m_LocalPosition.z
      value: -2.9694138
      objectReference: {fileID: 0}
    - target: {fileID: 5376642460924784230, guid: e2ccec26d80524f409a3965459ee5cfd,
        type: 3}
      propertyPath: m_LocalRotation.x
      value: 0
      objectReference: {fileID: 0}
    - target: {fileID: 5376642460924784230, guid: e2ccec26d80524f409a3965459ee5cfd,
        type: 3}
      propertyPath: m_LocalRotation.y
      value: 0
      objectReference: {fileID: 0}
    - target: {fileID: 5376642460924784230, guid: e2ccec26d80524f409a3965459ee5cfd,
        type: 3}
      propertyPath: m_LocalRotation.z
      value: 0
      objectReference: {fileID: 0}
    - target: {fileID: 5376642460924784230, guid: e2ccec26d80524f409a3965459ee5cfd,
        type: 3}
      propertyPath: m_LocalRotation.w
      value: 1
      objectReference: {fileID: 0}
    - target: {fileID: 5376642460924784230, guid: e2ccec26d80524f409a3965459ee5cfd,
        type: 3}
      propertyPath: m_RootOrder
      value: 2
      objectReference: {fileID: 0}
    - target: {fileID: 5376642460924784230, guid: e2ccec26d80524f409a3965459ee5cfd,
        type: 3}
      propertyPath: m_LocalEulerAnglesHint.x
      value: 0
      objectReference: {fileID: 0}
    - target: {fileID: 5376642460924784230, guid: e2ccec26d80524f409a3965459ee5cfd,
        type: 3}
      propertyPath: m_LocalEulerAnglesHint.y
      value: 0
      objectReference: {fileID: 0}
    - target: {fileID: 5376642460924784230, guid: e2ccec26d80524f409a3965459ee5cfd,
        type: 3}
      propertyPath: m_LocalEulerAnglesHint.z
      value: 0
      objectReference: {fileID: 0}
    - target: {fileID: 1213692399887140055, guid: e2ccec26d80524f409a3965459ee5cfd,
        type: 3}
      propertyPath: m_LocalPosition.z
      value: 1.305
      objectReference: {fileID: 0}
    - target: {fileID: 1213692399887140055, guid: e2ccec26d80524f409a3965459ee5cfd,
        type: 3}
      propertyPath: m_LocalScale.z
      value: 15.965858
      objectReference: {fileID: 0}
    - target: {fileID: 1213692399887140055, guid: e2ccec26d80524f409a3965459ee5cfd,
        type: 3}
      propertyPath: m_LocalPosition.y
      value: 3.509
      objectReference: {fileID: 0}
    - target: {fileID: 1213692399887140055, guid: e2ccec26d80524f409a3965459ee5cfd,
        type: 3}
      propertyPath: m_LocalScale.y
      value: 8.017
      objectReference: {fileID: 0}
    m_RemovedComponents: []
  m_SourcePrefab: {fileID: 100100000, guid: e2ccec26d80524f409a3965459ee5cfd, type: 3}
--- !u!1001 &888837480716775965
PrefabInstance:
  m_ObjectHideFlags: 0
  serializedVersion: 2
  m_Modification:
    m_TransformParent: {fileID: 0}
    m_Modifications:
    - target: {fileID: 888837481822235373, guid: 30fc39e5f1243184fa1e1c18b82f9ac5,
        type: 3}
      propertyPath: m_Name
      value: stairs
      objectReference: {fileID: 0}
    - target: {fileID: 888837481822235372, guid: 30fc39e5f1243184fa1e1c18b82f9ac5,
        type: 3}
      propertyPath: m_LocalPosition.x
      value: -6.311824
      objectReference: {fileID: 0}
    - target: {fileID: 888837481822235372, guid: 30fc39e5f1243184fa1e1c18b82f9ac5,
        type: 3}
      propertyPath: m_LocalPosition.y
      value: -1.0994029
      objectReference: {fileID: 0}
    - target: {fileID: 888837481822235372, guid: 30fc39e5f1243184fa1e1c18b82f9ac5,
        type: 3}
      propertyPath: m_LocalPosition.z
      value: 15.46
      objectReference: {fileID: 0}
    - target: {fileID: 888837481822235372, guid: 30fc39e5f1243184fa1e1c18b82f9ac5,
        type: 3}
      propertyPath: m_LocalRotation.x
      value: 0
      objectReference: {fileID: 0}
    - target: {fileID: 888837481822235372, guid: 30fc39e5f1243184fa1e1c18b82f9ac5,
        type: 3}
      propertyPath: m_LocalRotation.y
      value: 0
      objectReference: {fileID: 0}
    - target: {fileID: 888837481822235372, guid: 30fc39e5f1243184fa1e1c18b82f9ac5,
        type: 3}
      propertyPath: m_LocalRotation.z
      value: 0
      objectReference: {fileID: 0}
    - target: {fileID: 888837481822235372, guid: 30fc39e5f1243184fa1e1c18b82f9ac5,
        type: 3}
      propertyPath: m_LocalRotation.w
      value: 1
      objectReference: {fileID: 0}
    - target: {fileID: 888837481822235372, guid: 30fc39e5f1243184fa1e1c18b82f9ac5,
        type: 3}
      propertyPath: m_RootOrder
      value: 7
      objectReference: {fileID: 0}
    - target: {fileID: 888837481822235372, guid: 30fc39e5f1243184fa1e1c18b82f9ac5,
        type: 3}
      propertyPath: m_LocalEulerAnglesHint.x
      value: 0
      objectReference: {fileID: 0}
    - target: {fileID: 888837481822235372, guid: 30fc39e5f1243184fa1e1c18b82f9ac5,
        type: 3}
      propertyPath: m_LocalEulerAnglesHint.y
      value: 0
      objectReference: {fileID: 0}
    - target: {fileID: 888837481822235372, guid: 30fc39e5f1243184fa1e1c18b82f9ac5,
        type: 3}
      propertyPath: m_LocalEulerAnglesHint.z
      value: 0
      objectReference: {fileID: 0}
    m_RemovedComponents: []
  m_SourcePrefab: {fileID: 100100000, guid: 30fc39e5f1243184fa1e1c18b82f9ac5, type: 3}
--- !u!1001 &8454892302663832008
PrefabInstance:
  m_ObjectHideFlags: 0
  serializedVersion: 2
  m_Modification:
    m_TransformParent: {fileID: 0}
    m_Modifications:
    - target: {fileID: 3495903349966108924, guid: e2ccec26d80524f409a3965459ee5cfd,
        type: 3}
      propertyPath: m_Name
      value: Block
      objectReference: {fileID: 0}
    - target: {fileID: 5376642460924784230, guid: e2ccec26d80524f409a3965459ee5cfd,
        type: 3}
      propertyPath: m_LocalPosition.x
      value: -11.537695
      objectReference: {fileID: 0}
    - target: {fileID: 5376642460924784230, guid: e2ccec26d80524f409a3965459ee5cfd,
        type: 3}
      propertyPath: m_LocalPosition.y
      value: 0
      objectReference: {fileID: 0}
    - target: {fileID: 5376642460924784230, guid: e2ccec26d80524f409a3965459ee5cfd,
        type: 3}
      propertyPath: m_LocalPosition.z
      value: 1.6355534
      objectReference: {fileID: 0}
    - target: {fileID: 5376642460924784230, guid: e2ccec26d80524f409a3965459ee5cfd,
        type: 3}
      propertyPath: m_LocalRotation.x
      value: -0
      objectReference: {fileID: 0}
    - target: {fileID: 5376642460924784230, guid: e2ccec26d80524f409a3965459ee5cfd,
        type: 3}
      propertyPath: m_LocalRotation.y
      value: 0.72681016
      objectReference: {fileID: 0}
    - target: {fileID: 5376642460924784230, guid: e2ccec26d80524f409a3965459ee5cfd,
        type: 3}
      propertyPath: m_LocalRotation.z
      value: -0
      objectReference: {fileID: 0}
    - target: {fileID: 5376642460924784230, guid: e2ccec26d80524f409a3965459ee5cfd,
        type: 3}
      propertyPath: m_LocalRotation.w
      value: 0.68683845
      objectReference: {fileID: 0}
    - target: {fileID: 5376642460924784230, guid: e2ccec26d80524f409a3965459ee5cfd,
        type: 3}
      propertyPath: m_RootOrder
      value: 3
      objectReference: {fileID: 0}
    - target: {fileID: 5376642460924784230, guid: e2ccec26d80524f409a3965459ee5cfd,
        type: 3}
      propertyPath: m_LocalEulerAnglesHint.x
      value: 0
      objectReference: {fileID: 0}
    - target: {fileID: 5376642460924784230, guid: e2ccec26d80524f409a3965459ee5cfd,
        type: 3}
      propertyPath: m_LocalEulerAnglesHint.y
      value: 93.239006
      objectReference: {fileID: 0}
    - target: {fileID: 5376642460924784230, guid: e2ccec26d80524f409a3965459ee5cfd,
        type: 3}
      propertyPath: m_LocalEulerAnglesHint.z
      value: 0
      objectReference: {fileID: 0}
    - target: {fileID: 5376642460924784230, guid: e2ccec26d80524f409a3965459ee5cfd,
        type: 3}
      propertyPath: m_LocalScale.x
      value: 1.6682
      objectReference: {fileID: 0}
    - target: {fileID: 5376642460924784230, guid: e2ccec26d80524f409a3965459ee5cfd,
        type: 3}
      propertyPath: m_LocalScale.y
      value: 1.6682
      objectReference: {fileID: 0}
    - target: {fileID: 5376642460924784230, guid: e2ccec26d80524f409a3965459ee5cfd,
        type: 3}
      propertyPath: m_LocalScale.z
      value: 1.6682
      objectReference: {fileID: 0}
    m_RemovedComponents: []
  m_SourcePrefab: {fileID: 100100000, guid: e2ccec26d80524f409a3965459ee5cfd, type: 3}
